simulation/qsim/Lab1Demo.msim.vcd
$comment
	File created using the following command:
		vcd file Lab1Demo.msim.vcd -direction
$end
$date
	Sat Jun 20 00:02:58 2026
$end
$version
	ModelSim Version 10.5b
$end
$timescale
	1ps
$end

$scope module motion_clk_vlg_vec_tst $end
$var reg 1 ! clk $end
$var reg 1 " resetN $end
$var reg 1 # startOfFrame $end
$var wire 1 $ motion_pulse $end

$scope module i1 $end
$var wire 1 % gnd $end
$var wire 1 & vcc $end
$var wire 1 ' unknown $end
$var tri1 1 ( devclrn $end
$var tri1 1 ) devpor $end
$var tri1 1 * devoe $end
$var wire 1 + motion_pulse~output_o $end
$var wire 1 , clk~input_o $end
$var wire 1 - startOfFrame~input_o $end
$var wire 1 . counter[0]~4_combout $end
$var wire 1 / resetN~input_o $end
$var wire 1 0 counter~3_combout $end
$var wire 1 1 counter[2]~2_combout $end
$var wire 1 2 counter~1_combout $end
$var wire 1 3 counter[4]~0_combout $end
$var wire 1 4 motion_pulse~0_combout $end
$var wire 1 5 motion_pulse~reg0_q $end
$var wire 1 6 counter [4] $end
$var wire 1 7 counter [3] $end
$var wire 1 8 counter [2] $end
$var wire 1 9 counter [1] $end
$var wire 1 : counter [0] $end
$upscope $end
$upscope $end
$enddefinitions $end
#0
$dumpvars
0!
0"
0#
0$
0%
1&
x'
1(
1)
1*
0+
0,
0-
1.
0/
00
01
02
03
04
05
0:
09
08
07
06
$end
#5000
1!
1,
#10000
0!
0,
#12500
1#
1-
#15000
1!
1,
#20000
0!
0,
#25000
0#
1!
0-
1,
#30000
0!
0,
#35000
1!
1,
#37500
1#
1-
#40000
0!
0,
#45000
1!
1,
#50000
0#
0!
0-
0,
#55000
1!
1,
#60000
0!
0,
#62500
1#
1-
#65000
1!
1,
#70000
0!
0,
#75000
0#
1!
0-
1,
#80000
0!
0,
#85000
1!
1,
#87500
1#
1-
#90000
1"
0!
1/
0,
#95000
1!
1,
1:
10
0.
#100000
0#
0!
0-
0,
#105000
1!
1,
#110000
0!
0,
#112500
1#
1-
#115000
1!
1,
19
0:
1.
#120000
0!
0,
#125000
0#
1!
0-
1,
#130000
0!
0,
#135000
1!
1,
#137500
1#
1-
#140000
0!
0,
#145000
1!
1,
1:
11
00
0.
#150000
0#
0!
0-
0,
01
#155000
1!
1,
#160000
0!
0,
#162500
1#
1-
11
#165000
1!
1,
18
09
0:
1.
#170000
0!
0,
#175000
0#
1!
0-
1,
#180000
0!
0,
#185000
1!
1,
#187500
1#
1-
#190000
0!
0,
#195000
1!
1,
1:
10
0.
#200000
0#
0!
0-
0,
#205000
1!
1,
#210000
0!
0,
#212500
1#
1-
#215000
1!
1,
19
0:
1.
#220000
0!
0,
#225000
0#
1!
0-
1,
#230000
0!
0,
#235000
1!
1,
#237500
1#
1-
#240000
0!
0,
#245000
1!
1,
1:
12
01
00
0.
#250000
0#
0!
0-
0,
11
#255000
1!
1,
#260000
0!
0,
#262500
1#
1-
01
#265000
1!
1,
17
08
09
0:
1.
#270000
0!
0,
#275000
0#
1!
0-
1,
#280000
0!
0,
#285000
1!
1,
#287500
1#
1-
#290000
0!
0,
#295000
1!
1,
1:
14
02
0.
#300000
0#
0!
0-
0,
04
#305000
1!
1,
#310000
0!
0,
#312500
1#
1-
14
#315000
1!
1,
07
0:
15
1+
1$
04
1.
#320000
0!
0,
#325000
0#
1!
0-
1,
05
0+
0$
#330000
0!
0,
#335000
1!
1,
#337500
1#
1-
#340000
0!
0,
#345000
1!
1,
1:
10
0.
#350000
0#
0!
0-
0,
#355000
1!
1,
#360000
0!
0,
#362500
1#
1-
#365000
1!
1,
19
0:
1.
#370000
0!
0,
#375000
0#
1!
0-
1,
#380000
0!
0,
#385000
1!
1,
#387500
1#
1-
#390000
0!
0,
#395000
1!
1,
1:
11
00
0.
#400000
0#
0!
0-
0,
01
#405000
1!
1,
#410000
0!
0,
#412500
1#
1-
11
#415000
1!
1,
18
09
0:
1.
#420000
0!
0,
#425000
0#
1!
0-
1,
#430000
0!
0,
#435000
1!
1,
#437500
1#
1-
#440000
0!
0,
#445000
1!
1,
1:
10
0.
#450000
0#
0!
0-
0,
#455000
1!
1,
#460000
0!
0,
#462500
1#
1-
#465000
1!
1,
19
0:
1.
#470000
0!
0,
#475000
0#
1!
0-
1,
#480000
0!
0,
#485000
1!
1,
#487500
1#
1-
#490000
0!
0,
#495000
1!
1,
1:
12
01
00
0.
#500000
0#
0!
0-
0,
11
#505000
1!
1,
#510000
0!
0,
#512500
1#
1-
01
#515000
1!
1,
17
08
09
0:
1.
#520000
0!
0,
#525000
0#
1!
0-
1,
#530000
0!
0,
#535000
1!
1,
#537500
1#
1-
#540000
0!
0,
#545000
1!
1,
1:
14
02
0.
#550000
0#
0!
0-
0,
04
#555000
1!
1,
#560000
0!
0,
#562500
1#
1-
14
#565000
1!
1,
07
0:
15
1+
1$
04
1.
#570000
0!
0,
#575000
0#
1!
0-
1,
05
0+
0$
#580000
0!
0,
#585000
1!
1,
#587500
1#
1-
#590000
0!
0,
#595000
1!
1,
1:
10
0.
#600000
0#
0!
0-
0,
#605000
1!
1,
#610000
0!
0,
#612500
1#
1-
#615000
1!
1,
19
0:
1.
#620000
0!
0,
#625000
0#
1!
0-
1,
#630000
0!
0,
#635000
1!
1,
#637500
1#
1-
#640000
0!
0,
#645000
1!
1,
1:
11
00
0.
#650000
0#
0!
0-
0,
01
#655000
1!
1,
#660000
0!
0,
#662500
1#
1-
11
#665000
1!
1,
18
09
0:
1.
#670000
0!
0,
#675000
0#
1!
0-
1,
#680000
0!
0,
#685000
1!
1,
#687500
1#
1-
#690000
0!
0,
#695000
1!
1,
1:
10
0.
#700000
0#
0!
0-
0,
#705000
1!
1,
#710000
0!
0,
#712500
1#
1-
#715000
1!
1,
19
0:
1.
#720000
0!
0,
#725000
0#
1!
0-
1,
#730000
0!
0,
#735000
1!
1,
#737500
1#
1-
#740000
0!
0,
#745000
1!
1,
1:
12
01
00
0.
#750000
0#
0!
0-
0,
11
#755000
1!
1,
#760000
0!
0,
#762500
1#
1-
01
#765000
1!
1,
17
08
09
0:
1.
#770000
0!
0,
#775000
0#
1!
0-
1,
#780000
0!
0,
#785000
1!
1,
#787500
1#
1-
#790000
0!
0,
#795000
1!
1,
1:
14
02
0.
#800000
0#
0!
0-
0,
04
#805000
1!
1,
#810000
0!
0,
#812500
1#
1-
14
#815000
1!
1,
07
0:
15
1+
1$
04
1.
#820000
0!
0,
#825000
0#
1!
0-
1,
05
0+
0$
#830000
0!
0,
#835000
1!
1,
#837500
1#
1-
#840000
0!
0,
#845000
1!
1,
1:
10
0.
#850000
0#
0!
0-
0,
#855000
1!
1,
#860000
0!
0,
#862500
1#
1-
#865000
1!
1,
19
0:
1.
#870000
0!
0,
#875000
0#
1!
0-
1,
#880000
0!
0,
#885000
1!
1,
#887500
1#
1-
#890000
0!
0,
#895000
1!
1,
1:
11
00
0.
#900000
0#
0!
0-
0,
01
#905000
1!
1,
#910000
0!
0,
#912500
1#
1-
11
#915000
1!
1,
18
09
0:
1.
#920000
0!
0,
#925000
0#
1!
0-
1,
#930000
0!
0,
#935000
1!
1,
#937500
1#
1-
#940000
0!
0,
#945000
1!
1,
1:
10
0.
#950000
0#
0!
0-
0,
#955000
1!
1,
#960000
0!
0,
#962500
1#
1-
#965000
1!
1,
19
0:
1.
#970000
0!
0,
#975000
0#
1!
0-
1,
#980000
0!
0,
#985000
1!
1,
#987500
1#
1-
#990000
0!
0,
#995000
1!
1,
1:
12
01
00
0.
